Experiment/4.csv

X,CH1,CH2,Start,Increment,P(Psi),V_int (cc)
0,2.56E-01,5.48E+00,-5.99E+00,1.00E-02,,6.00E+00
1,3.20E-02,5.28E+00,,,,
2,3.44E-01,5.52E+00,,,,
3,-2.40E-02,5.24E+00,,,,
4,3.04E-01,5.48E+00,,,,
5,-8.00E-03,5.28E+00,,,,
6,0.00E+00,5.28E+00,,,,
7,2.88E-01,5.52E+00,,,,
8,-4.80E-02,5.48E+00,,,,
9,3.12E-01,5.24E+00,,,,
10,0.00E+00,5.28E+00,,,,
11,3.20E-01,5.52E+00,,,,
12,-2.40E-02,5.52E+00,,,,
13,2.88E-01,5.24E+00,,,,
14,-8.00E-03,5.48E+00,,,,
15,3.20E-01,5.24E+00,,,,
16,-1.60E-02,5.48E+00,,,,
17,2.80E-01,5.24E+00,,,,
18,3.04E-01,5.24E+00,,,,
19,0.00E+00,5.52E+00,,,,
20,0.00E+00,5.52E+00,,,,
21,3.04E-01,5.24E+00,,,,
22,2.88E-01,5.48E+00,,,,
23,1.60E-02,5.24E+00,,,,
24,2.64E-01,5.24E+00,,,,
25,-1.60E-02,5.52E+00,,,,
26,2.80E-01,5.52E+00,,,,
27,-1.60E-02,5.24E+00,,,,
28,2.88E-01,5.52E+00,,,,
29,8.00E-03,5.24E+00,,,,
30,3.04E-01,5.48E+00,,,,
31,-1.60E-02,5.24E+00,,,,
32,-3.20E-02,5.24E+00,,,,
33,2.72E-01,5.52E+00,,,,
34,0.00E+00,5.24E+00,,,,
35,3.20E-01,5.48E+00,,,,
36,-3.20E-02,5.48E+00,,,,
37,2.80E-01,5.24E+00,,,,
38,-3.20E-02,5.52E+00,,,,
39,3.12E-01,5.24E+00,,,,
40,-3.52E-01,6.20E+00,,,,
41,1.02E+00,4.68E+00,,,,
42,1.02E+00,6.64E+00,,,,
43,-1.02E+00,4.20E+00,,,,
44,-1.02E+00,6.36E+00,,,,
45,1.02E+00,4.28E+00,,,,
46,1.02E+00,6.40E+00,,,,
47,-9.76E-01,4.40E+00,,,,
48,1.02E+00,6.20E+00,,,,
49,-9.60E-01,4.16E+00,,,,
50,1.02E+00,6.16E+00,,,,
51,-7.04E-01,4.56E+00,,,,
52,1.02E+00,4.72E+00,,,,
53,-8.88E-01,6.28E+00,,,,
54,1.02E+00,6.20E+00,,,,
55,-9.36E-01,4.28E+00,,,,
56,-1.00E+00,6.20E+00,,,,
57,1.02E+00,4.24E+00,,,,
58,7.84E-01,6.00E+00,,,,
59,-9.36E-01,4.20E+00,,,,
60,1.01E+00,6.08E+00,,,,
61,-7.44E-01,4.52E+00,,,,
62,1.02E+00,4.60E+00,,,,
63,-7.04E-01,6.24E+00,,,,
64,1.00E+00,6.16E+00,,,,
65,-6.00E-01,4.56E+00,,,,
66,-8.88E-01,4.52E+00,,,,
67,1.02E+00,6.16E+00,,,,
68,1.02E+00,6.04E+00,,,,
69,-9.36E-01,4.40E+00,,,,
70,1.02E+00,4.52E+00,,,,
71,-8.00E-01,6.12E+00,,,,
72,2.48E-01,5.32E+00,,,,
73,-5.60E-02,5.60E+00,,,,
74,-7.20E-02,5.32E+00,,,,
75,3.36E-01,5.68E+00,,,,
76,2.56E-01,5.64E+00,,,,
77,-1.60E-02,5.36E+00,,,,
78,-2.40E-02,5.72E+00,,,,
79,2.80E-01,5.36E+00,,,,
80,2.72E-01,5.40E+00,,,,
81,-4.00E-02,5.68E+00,,,,
82,-6.40E-02,5.40E+00,,,,
83,2.88E-01,5.72E+00,,,,
84,-2.40E-02,5.40E+00,,,,
85,2.72E-01,5.72E+00,,,,
86,-8.00E-03,5.72E+00,,,,
87,2.80E-01,5.44E+00,,,,
88,-3.20E-02,5.40E+00,,,,
89,2.72E-01,5.72E+00,,,,
90,-3.20E-02,5.72E+00,,,,
91,3.04E-01,5.40E+00,,,,
92,2.72E-01,5.44E+00,,,,
93,-4.80E-02,5.72E+00,,,,
94,3.12E-01,5.68E+00,,,,
95,-4.80E-02,5.44E+00,,,,
96,-8.00E-03,5.72E+00,,,,
97,2.48E-01,5.40E+00,,,,
98,-1.60E-02,5.72E+00,,,,
99,2.72E-01,5.40E+00,,,,
100,-1.60E-02,5.72E+00,,,,
101,2.80E-01,5.40E+00,,,,
102,-2.40E-02,5.72E+00,,,,
103,2.88E-01,5.44E+00,,,,
104,2.72E-01,5.72E+00,,,,
105,-4.00E-02,5.40E+00,,,,
106,-3.20E-02,5.72E+00,,,,
107,3.04E-01,5.40E+00,,,,
108,-6.40E-02,5.72E+00,,,,
109,2.88E-01,5.40E+00,,,,
110,-3.20E-02,5.44E+00,,,,
111,3.12E-01,5.72E+00,,,,
112,3.04E-01,5.72E+00,,,,
113,-3.20E-02,5.44E+00,,,,
114,2.96E-01,5.72E+00,,,,
115,-1.60E-02,5.40E+00,,,,
116,0.00E+00,5.40E+00,,,,
117,3.04E-01,5.68E+00,,,,
118,2.72E-01,5.44E+00,,,,
119,-1.60E-02,5.72E+00,,,,
120,-2.40E-02,5.40E+00,,,,
121,3.04E-01,5.72E+00,,,,
122,2.72E-01,5.40E+00,,,,
123,-8.00E-03,5.68E+00,,,,
124,1.02E+00,6.68E+00,,,,
125,-1.02E+00,4.32E+00,,,,
126,1.02E+00,6.72E+00,,,,
127,-1.02E+00,4.28E+00,,,,
128,1.02E+00,6.52E+00,,,,
129,-1.01E+00,4.88E+00,,,,
130,-7.68E-01,4.72E+00,,,,
131,9.92E-01,6.44E+00,,,,
132,1.02E+00,6.60E+00,,,,
133,-9.04E-01,5.08E+00,,,,
134,1.02E+00,6.60E+00,,,,
135,-1.02E+00,4.92E+00,,,,
136,1.02E+00,6.64E+00,,,,
137,-8.80E-01,5.08E+00,,,,
138,-6.96E-01,5.20E+00,,,,
139,1.02E+00,6.80E+00,,,,
140,-8.64E-01,6.80E+00,,,,
141,1.02E+00,5.24E+00,,,,
142,1.02E+00,6.84E+00,,,,
143,-1.02E+00,4.92E+00,,,,
144,1.02E+00,6.88E+00,,,,
145,-8.56E-01,5.24E+00,,,,
146,-7.20E-01,7.00E+00,,,,
147,8.96E-01,5.48E+00,,,,
148,-8.80E-02,6.08E+00,,,,
149,2.32E-01,6.36E+00,,,,
150,-1.04E-01,6.08E+00,,,,
151,2.48E-01,6.40E+00,,,,
152,-7.20E-02,6.40E+00,,,,
153,2.48E-01,6.16E+00,,,,
154,-4.80E-02,6.44E+00,,,,
155,2.40E-01,6.16E+00,,,,
156,2.16E-01,6.40E+00,,,,
157,-7.20E-02,6.12E+00,,,,
158,2.24E-01,6.44E+00,,,,
159,-8.80E-02,6.16E+00,,,,
160,-1.76E-01,6.44E+00,,,,
161,2.40E-01,6.16E+00,,,,
162,-4.80E-02,6.52E+00,,,,
163,2.48E-01,6.12E+00,,,,
164,-4.80E-02,6.44E+00,,,,
165,2.40E-01,6.16E+00,,,,
166,2.64E-01,6.48E+00,,,,
167,-8.80E-02,6.16E+00,,,,
168,-1.12E-01,6.44E+00,,,,
169,2.48E-01,6.16E+00,,,,
170,-5.60E-02,6.16E+00,,,,
171,2.24E-01,6.48E+00,,,,
172,-7.20E-02,6.44E+00,,,,
173,2.56E-01,6.12E+00,,,,
174,2.56E-01,6.48E+00,,,,
175,-1.20E-01,6.12E+00,,,,
176,2.32E-01,6.44E+00,,,,
177,-1.44E-01,6.16E+00,,,,
178,2.24E-01,6.44E+00,,,,
179,-8.80E-02,6.16E+00,,,,
180,2.40E-01,6.16E+00,,,,
181,-5.60E-02,6.48E+00,,,,
182,2.64E-01,6.16E+00,,,,
183,-4.80E-02,6.48E+00,,,,
184,-8.80E-02,6.16E+00,,,,
185,2.48E-01,6.48E+00,,,,
186,-5.60E-02,6.16E+00,,,,
187,2.24E-01,6.40E+00,,,,
188,-6.40E-02,6.12E+00,,,,
189,2.08E-01,6.44E+00,,,,
190,-6.40E-02,6.44E+00,,,,
191,2.32E-01,6.16E+00,,,,
192,-6.40E-02,6.20E+00,,,,
193,2.00E-01,6.48E+00,,,,
194,-3.20E-02,6.44E+00,,,,
195,2.40E-01,6.12E+00,,,,
196,-7.20E-02,6.48E+00,,,,
197,2.24E-01,6.16E+00,,,,
198,2.32E-01,6.16E+00,,,,
199,-9.60E-02,6.48E+00,,,,
200,-7.04E-01,6.16E+00,,,,
201,1.02E+00,9.76E+00,,,,
202,1.02E+00,7.60E+00,,,,
203,-1.02E+00,5.04E+00,,,,
204,-1.02E+00,7.44E+00,,,,
205,1.02E+00,5.52E+00,,,,
206,-9.04E-01,5.64E+00,,,,
207,1.02E+00,7.20E+00,,,,
208,1.02E+00,7.40E+00,,,,
209,-7.92E-01,5.52E+00,,,,
210,1.02E+00,7.44E+00,,,,
211,-1.02E+00,5.40E+00,,,,
212,1.02E+00,5.56E+00,,,,
213,-8.48E-01,7.44E+00,,,,
214,-1.02E+00,5.48E+00,,,,
215,1.02E+00,7.44E+00,,,,
216,-1.02E+00,5.68E+00,,,,
217,1.02E+00,7.56E+00,,,,
218,1.02E+00,5.60E+00,,,,
219,-1.02E+00,7.44E+00,,,,
220,1.02E+00,7.44E+00,,,,
221,-1.02E+00,5.68E+00,,,,
222,1.02E+00,7.64E+00,,,,
223,-1.02E+00,5.88E+00,,,,
224,1.02E+00,5.76E+00,,,,
225,-1.02E+00,7.72E+00,,,,
226,-1.02E+00,5.96E+00,,,,
227,1.02E+00,7.84E+00,,,,
228,-1.28E-01,7.12E+00,,,,
229,1.84E-01,6.84E+00,,,,
230,-1.60E-01,7.16E+00,,,,
231,1.68E-01,6.88E+00,,,,
232,-1.44E-01,6.88E+00,,,,
233,1.44E-01,7.16E+00,,,,
234,1.92E-01,6.88E+00,,,,
235,-1.52E-01,7.20E+00,,,,
236,-1.36E-01,6.96E+00,,,,
237,1.36E-01,7.24E+00,,,,
238,1.52E-01,7.24E+00,,,,
239,-1.28E-01,6.88E+00,,,,
240,1.68E-01,6.88E+00,,,,
241,-1.12E-01,7.28E+00,,,,
242,-1.36E-01,6.92E+00,,,,
243,1.92E-01,7.20E+00,,,,
244,1.92E-01,6.88E+00,,,,
245,-1.76E-01,7.24E+00,,,,
246,-1.12E-01,6.88E+00,,,,
247,2.00E-01,7.20E+00,,,,
248,-1.44E-01,6.88E+00,,,,
249,1.76E-01,7.24E+00,,,,
250,-1.44E-01,7.16E+00,,,,
251,1.76E-01,6.92E+00,,,,
252,1.84E-01,7.20E+00,,,,
253,-1.44E-01,6.88E+00,,,,
254,-1.20E-01,6.88E+00,,,,
255,1.84E-01,7.20E+00,,,,
256,-1.44E-01,6.92E+00,,,,
257,1.76E-01,7.24E+00,,,,
258,-1.44E-01,7.20E+00,,,,
259,1.68E-01,6.88E+00,,,,
260,1.76E-01,7.20E+00,,,,
261,-1.52E-01,6.88E+00,,,,
262,1.92E-01,7.20E+00,,,,
263,-1.44E-01,6.88E+00,,,,
264,1.76E-01,6.88E+00,,,,
265,-1.20E-01,7.24E+00,,,,
266,1.92E-01,7.20E+00,,,,
267,-1.76E-01,6.88E+00,,,,
268,1.60E-01,6.92E+00,,,,
269,-1.36E-01,7.20E+00,,,,
270,2.00E-01,7.20E+00,,,,
271,-1.20E-01,6.88E+00,,,,
272,1.76E-01,6.92E+00,,,,
273,-1.60E-01,7.24E+00,,,,
274,-1.36E-01,6.88E+00,,,,
275,1.68E-01,7.20E+00,,,,
276,1.02E+00,5.88E+00,,,,
277,-1.02E+00,8.32E+00,,,,
278,-1.02E+00,8.20E+00,,,,
279,1.02E+00,5.96E+00,,,,
280,-1.02E+00,6.28E+00,,,,
281,1.02E+00,8.12E+00,,,,
282,1.02E+00,8.12E+00,,,,
283,-1.02E+00,6.40E+00,,,,
284,1.02E+00,8.08E+00,,,,
285,-1.02E+00,6.08E+00,,,,
286,1.02E+00,8.08E+00,,,,
287,-1.02E+00,6.40E+00,,,,
288,-1.02E+00,6.48E+00,,,,
289,1.02E+00,8.20E+00,,,,
290,1.02E+00,8.24E+00,,,,
291,-1.02E+00,6.44E+00,,,,
292,-1.02E+00,8.24E+00,,,,
293,7.12E-01,6.56E+00,,,,
294,1.02E+00,6.44E+00,,,,
295,-1.02E+00,8.28E+00,,,,
296,1.02E+00,8.48E+00,,,,
297,-1.02E+00,6.84E+00,,,,
298,-2.16E-01,7.48E+00,,,,
299,1.12E-01,7.80E+00,,,,
300,-2.24E-01,7.56E+00,,,,
301,8.80E-02,7.84E+00,,,,
302,7.20E-02,7.84E+00,,,,
303,-2.00E-01,7.60E+00,,,,
304,-1.92E-01,7.60E+00,,,,
305,7.20E-02,7.84E+00,,,,
306,-1.92E-01,7.84E+00,,,,
307,8.00E-02,7.56E+00,,,,
308,-1.92E-01,7.88E+00,,,,
309,1.20E-01,7.60E+00,,,,
310,1.20E-01,7.56E+00,,,,
311,-1.76E-01,7.88E+00,,,,
312,-1.68E-01,7.64E+00,,,,
313,1.04E-01,7.84E+00,,,,
314,8.80E-02,7.88E+00,,,,
315,-2.16E-01,7.56E+00,,,,
316,-1.60E-01,7.88E+00,,,,
317,1.04E-01,7.56E+00,,,,
318,1.28E-01,7.60E+00,,,,
319,-1.84E-01,7.88E+00,,,,
320,1.36E-01,7.56E+00,,,,
321,-2.08E-01,7.88E+00,,,,
322,1.20E-01,7.88E+00,,,,
323,-2.08E-01,7.60E+00,,,,
324,-1.84E-01,7.88E+00,,,,
325,9.60E-02,7.60E+00,,,,
326,-1.92E-01,7.84E+00,,,,
327,1.12E-01,7.56E+00,,,,
328,1.28E-01,7.56E+00,,,,
329,-1.84E-01,7.88E+00,,,,
330,-1.52E-01,7.64E+00,,,,
331,1.20E-01,7.92E+00,,,,
332,1.52E-01,7.60E+00,,,,
333,-1.76E-01,7.84E+00,,,,
334,1.12E-01,7.60E+00,,,,
335,-2.00E-01,7.88E+00,,,,
336,-2.40E-01,7.88E+00,,,,
337,9.60E-02,7.56E+00,,,,
338,1.28E-01,7.60E+00,,,,
339,-2.88E-01,7.88E+00,,,,
340,-1.02E+00,3.68E+00,,,,
341,1.02E+00,8.76E+00,,,,
342,1.02E+00,8.92E+00,,,,
343,-1.02E+00,6.44E+00,,,,
344,-1.02E+00,6.92E+00,,,,
345,1.02E+00,8.80E+00,,,,
346,1.02E+00,7.08E+00,,,,
347,-1.02E+00,8.72E+00,,,,
348,1.02E+00,8.88E+00,,,,
349,-1.02E+00,7.12E+00,,,,
350,-7.44E-01,8.76E+00,,,,
351,9.92E-01,7.52E+00,,,,
352,-1.02E+00,7.12E+00,,,,
353,1.02E+00,8.92E+00,,,,
354,-1.02E+00,7.16E+00,,,,
355,1.02E+00,8.96E+00,,,,
356,-1.02E+00,7.12E+00,,,,
357,9.36E-01,8.92E+00,,,,
358,-1.02E+00,7.40E+00,,,,
359,1.02E+00,9.12E+00,,,,
360,9.60E-01,9.08E+00,,,,
361,-1.02E+00,7.32E+00,,,,
362,-9.52E-01,8.64E+00,,,,
363,4.88E-01,7.32E+00,,,,
364,-2.88E-01,8.52E+00,,,,
365,2.40E-02,8.20E+00,,,,
366,-2.88E-01,8.52E+00,,,,
367,4.00E-02,8.28E+00,,,,
368,-2.64E-01,8.28E+00,,,,
369,3.20E-02,8.56E+00,,,,
370,0.00E+00,8.56E+00,,,,
371,-2.72E-01,8.28E+00,,,,
372,1.60E-02,8.32E+00,,,,
373,-2.72E-01,8.56E+00,,,,
374,-8.00E-03,8.28E+00,,,,
375,-3.04E-01,8.56E+00,,,,
376,2.40E-02,8.32E+00,,,,
377,-2.48E-01,8.56E+00,,,,
378,-2.64E-01,8.56E+00,,,,
379,8.00E-03,8.32E+00,,,,
380,1.04E-01,8.28E+00,,,,
381,-2.64E-01,8.60E+00,,,,
382,3.20E-02,8.32E+00,,,,
383,-2.64E-01,8.56E+00,,,,
384,-2.88E-01,8.32E+00,,,,
385,3.20E-02,8.56E+00,,,,
386,-2.56E-01,8.28E+00,,,,
387,3.20E-02,8.56E+00,,,,
388,-2.88E-01,8.52E+00,,,,
389,2.40E-02,8.28E+00,,,,
390,-2.88E-01,8.32E+00,,,,
391,2.40E-02,8.56E+00,,,,
392,-3.20E-01,8.20E+00,,,,
393,2.40E-02,8.56E+00,,,,
394,4.80E-02,8.56E+00,,,,
395,-2.56E-01,8.28E+00,,,,
396,-2.72E-01,8.52E+00,,,,
397,4.00E-02,8.28E+00,,,,
398,-2.72E-01,8.56E+00,,,,
399,4.80E-02,8.28E+00,,,,
400,1.02E+00,6.88E+00,,,,
401,-9.12E-01,9.60E+00,,,,
402,1.02E+00,7.48E+00,,,,
403,-1.02E+00,9.56E+00,,,,
404,-1.02E+00,7.48E+00,,,,
405,8.24E-01,9.32E+00,,,,
406,-1.02E+00,7.40E+00,,,,
407,9.44E-01,9.40E+00,,,,
408,-1.02E+00,9.44E+00,,,,
409,9.84E-01,7.60E+00,,,,
410,9.20E-01,9.48E+00,,,,
411,-1.02E+00,7.68E+00,,,,
412,-1.02E+00,7.88E+00,,,,
413,1.02E+00,9.52E+00,,,,
414,-1.02E+00,9.52E+00,,,,
415,8.80E-01,7.92E+00,,,,
416,-1.02E+00,9.64E+00,,,,
417,8.72E-01,7.92E+00,,,,
418,-1.02E+00,8.00E+00,,,,
419,8.56E-01,9.72E+00,,,,
420,7.92E-01,9.48E+00,,,,
421,-1.02E+00,7.92E+00,,,,
422,9.60E-01,9.84E+00,,,,
423,-1.02E+00,7.92E+00,,,,
424,-4.00E-01,9.12E+00,,,,
425,-8.00E-02,8.88E+00,,,,
426,-7.20E-02,9.20E+00,,,,
427,-4.24E-01,8.88E+00,,,,
428,-3.60E-01,8.92E+00,,,,
429,-7.20E-02,9.24E+00,,,,
430,-3.92E-01,8.96E+00,,,,
431,-6.40E-02,9.20E+00,,,,
432,-5.60E-02,9.20E+00,,,,
433,-3.76E-01,8.88E+00,,,,
434,-6.40E-02,9.24E+00,,,,
435,-3.36E-01,8.92E+00,,,,
436,-3.84E-01,9.20E+00,,,,
437,-6.40E-02,8.92E+00,,,,
438,-3.60E-01,9.24E+00,,,,
439,-6.40E-02,8.92E+00,,,,
440,-2.40E-02,8.92E+00,,,,
441,-3.68E-01,9.24E+00,,,,
442,-4.80E-02,8.92E+00,,,,
443,-3.52E-01,9.20E+00,,,,
444,-2.40E-02,8.96E+00,,,,
445,-3.44E-01,9.20E+00,,,,
446,-2.40E-02,9.24E+00,,,,
447,-3.84E-01,8.92E+00,,,,
448,-3.60E-01,8.96E+00,,,,
449,-5.60E-02,9.24E+00,,,,
450,-6.40E-02,9.24E+00,,,,
451,-3.60E-01,8.96E+00,,,,
452,-2.40E-02,9.24E+00,,,,
453,-3.28E-01,8.92E+00,,,,
454,-3.44E-01,9.28E+00,,,,
455,-5.60E-02,8.92E+00,,,,
456,-3.36E-01,9.24E+00,,,,
457,-3.20E-02,8.88E+00,,,,
458,-2.40E-02,9.20E+00,,,,
459,-3.36E-01,8.92E+00,,,,
460,-1.02E+00,9.76E+00,,,,
461,9.36E-01,7.72E+00,,,,
462,-1.02E+00,7.84E+00,,,,
463,1.02E+00,1.01E+01,,,,
464,-1.02E+00,8.16E+00,,,,
465,8.48E-01,9.88E+00,,,,
466,-1.02E+00,8.04E+00,,,,
467,1.02E+00,1.01E+01,,,,
468,-1.02E+00,8.60E+00,,,,
469,9.68E-01,1.01E+01,,,,
470,-1.02E+00,1.00E+01,,,,
471,8.16E-01,8.60E+00,,,,
472,-1.02E+00,1.02E+01,,,,
473,7.28E-01,8.28E+00,,,,
474,-1.02E+00,1.02E+01,,,,
475,7.76E-01,8.40E+00,,,,
476,-1.02E+00,8.36E+00,,,,
477,7.84E-01,1.01E+01,,,,
478,7.36E-01,1.03E+01,,,,
479,-1.02E+00,8.92E+00,,,,
480,-1.02E+00,8.88E+00,,,,
481,7.28E-01,1.04E+01,,,,
482,-1.02E+00,8.60E+00,,,,
483,7.04E-01,1.02E+01,,,,
484,-1.02E+00,8.92E+00,,,,
485,4.88E-01,1.03E+01,,,,
486,-1.84E-01,9.52E+00,,,,
487,-5.20E-01,9.84E+00,,,,
488,-5.20E-01,9.56E+00,,,,
489,-1.84E-01,9.88E+00,,,,
490,-2.00E-01,9.88E+00,,,,
491,-5.60E-01,9.60E+00,,,,
492,-5.36E-01,9.88E+00,,,,
493,-2.24E-01,9.60E+00,,,,
494,-1.92E-01,9.88E+00,,,,
495,-4.88E-01,9.56E+00,,,,
496,-4.72E-01,9.64E+00,,,,
497,-2.00E-01,9.92E+00,,,,
498,-2.08E-01,9.64E+00,,,,
499,-5.20E-01,9.88E+00,,,,
500,-4.96E-01,9.88E+00,,,,
501,-2.16E-01,9.60E+00,,,,
502,-5.12E-01,9.88E+00,,,,
503,-2.24E-01,9.60E+00,,,,
504,-2.08E-01,9.96E+00,,,,
505,-5.04E-01,9.60E+00,,,,
506,-5.28E-01,9.92E+00,,,,
507,-2.24E-01,9.60E+00,,,,
508,-5.20E-01,9.60E+00,,,,
509,-1.76E-01,9.92E+00,,,,
510,-5.04E-01,9.64E+00,,,,
511,-1.92E-01,9.92E+00,,,,
512,-5.60E-01,9.64E+00,,,,
513,-1.92E-01,9.92E+00,,,,
514,-2.24E-01,9.88E+00,,,,
515,-5.20E-01,9.60E+00,,,,
516,-2.00E-01,9.88E+00,,,,
517,-4.96E-01,9.64E+00,,,,
518,1.02E+00,8.84E+00,,,,
519,-1.02E+00,1.09E+01,,,,
520,-1.02E+00,8.24E+00,,,,
521,1.01E+00,1.09E+01,,,,
522,-1.02E+00,9.20E+00,,,,
523,6.16E-01,1.06E+01,,,,
524,-1.02E+00,8.80E+00,,,,
525,7.36E-01,1.07E+01,,,,
526,-1.02E+00,1.07E+01,,,,
527,6.72E-01,9.20E+00,,,,
528,-1.02E+00,9.00E+00,,,,
529,6.88E-01,1.08E+01,,,,
530,-1.02E+00,1.09E+01,,,,
531,6.40E-01,9.04E+00,,,,
532,-1.02E+00,9.00E+00,,,,
533,6.40E-01,1.07E+01,,,,
534,-1.02E+00,1.10E+01,,,,
535,7.52E-01,9.40E+00,,,,
536,-1.02E+00,9.52E+00,,,,
537,2.24E-01,1.08E+01,,,,
538,-6.32E-01,1.04E+01,,,,
539,-3.28E-01,1.01E+01,,,,
540,-3.12E-01,1.04E+01,,,,
541,-6.32E-01,1.01E+01,,,,
542,-6.24E-01,1.01E+01,,,,
543,-3.20E-01,1.04E+01,,,,
544,-3.04E-01,1.04E+01,,,,
545,-6.24E-01,1.01E+01,,,,
546,-6.40E-01,1.04E+01,,,,
547,-3.44E-01,1.01E+01,,,,
548,-5.84E-01,1.04E+01,,,,
549,-3.04E-01,1.01E+01,,,,
550,-6.16E-01,1.01E+01,,,,
551,-2.88E-01,1.04E+01,,,,
552,-5.92E-01,1.04E+01,,,,
553,-2.80E-01,1.01E+01,,,,
554,-6.08E-01,1.04E+01,,,,
555,-3.20E-01,1.01E+01,,,,
556,-3.20E-01,1.02E+01,,,,
557,-6.16E-01,1.04E+01,,,,
558,-6.00E-01,1.02E+01,,,,
559,-3.20E-01,1.04E+01,,,,
560,-6.00E-01,1.04E+01,,,,
561,-3.28E-01,1.01E+01,,,,
562,-2.96E-01,1.04E+01,,,,
563,-6.08E-01,1.01E+01,,,,
564,-3.04E-01,1.04E+01,,,,
565,-6.08E-01,1.01E+01,,,,
566,-6.40E-01,1.04E+01,,,,
567,-2.88E-01,1.01E+01,,,,
568,-3.28E-01,1.04E+01,,,,
569,-6.48E-01,1.01E+01,,,,
570,-3.20E-01,1.01E+01,,,,
571,-6.72E-01,1.04E+01,,,,
572,-6.32E-01,1.04E+01,,,,
573,-3.28E-01,1.01E+01,,,,
574,-1.02E+00,1.09E+01,,,,
575,5.84E-01,9.28E+00,,,,
576,-1.02E+00,8.84E+00,,,,
577,1.02E+00,1.11E+01,,,,
578,-1.02E+00,1.11E+01,,,,
579,9.04E-01,9.24E+00,,,,
580,-1.02E+00,9.16E+00,,,,
581,1.92E-01,1.09E+01,,,,
582,-1.02E+00,1.11E+01,,,,
583,5.20E-01,9.28E+00,,,,
584,-1.02E+00,9.32E+00,,,,
585,5.04E-01,1.11E+01,,,,
586,-1.02E+00,1.11E+01,,,,
587,5.44E-01,9.64E+00,,,,
588,-1.02E+00,1.11E+01,,,,
589,5.36E-01,9.68E+00,,,,
590,-1.02E+00,1.11E+01,,,,
591,5.12E-01,9.60E+00,,,,
592,-1.02E+00,1.11E+01,,,,
593,4.88E-01,9.60E+00,,,,
594,-1.02E+00,1.11E+01,,,,
595,4.88E-01,9.60E+00,,,,
596,-1.02E+00,1.11E+01,,,,
597,4.88E-01,1.01E+01,,,,
598,-1.02E+00,1.11E+01,,,,
599,-2.32E-01,9.68E+00,,,,
600,-5.28E-01,1.10E+01,,,,
601,-8.40E-01,1.07E+01,,,,
602,-7.92E-01,1.10E+01,,,,
603,-4.88E-01,1.07E+01,,,,
604,-5.04E-01,1.07E+01,,,,
605,-7.76E-01,1.10E+01,,,,
606,-8.00E-01,1.10E+01,,,,
607,-5.12E-01,1.07E+01,,,,
608,-4.96E-01,1.07E+01,,,,
609,-8.00E-01,1.10E+01,,,,
610,-7.76E-01,1.10E+01,,,,
611,-5.12E-01,1.07E+01,,,,
612,-7.76E-01,1.07E+01,,,,
613,-4.80E-01,1.10E+01,,,,
614,-7.76E-01,1.10E+01,,,,
615,-4.96E-01,1.07E+01,,,,
616,-8.00E-01,1.10E+01,,,,
617,-4.64E-01,1.06E+01,,,,
618,-4.64E-01,1.10E+01,,,,
619,-7.76E-01,1.07E+01,,,,
620,-4.72E-01,1.10E+01,,,,
621,-7.92E-01,1.07E+01,,,,
622,-7.92E-01,1.10E+01,,,,
623,-4.96E-01,1.07E+01,,,,
624,-7.68E-01,1.10E+01,,,,
625,-4.72E-01,1.07E+01,,,,
626,-7.92E-01,1.10E+01,,,,
627,-5.04E-01,1.07E+01,,,,
628,-4.64E-01,1.07E+01,,,,
629,-7.68E-01,1.10E+01,,,,
630,-8.32E-01,1.10E+01,,,,
631,-4.72E-01,1.07E+01,,,,
632,-1.02E+00,1.11E+01,,,,
633,6.48E-01,9.40E+00,,,,
634,-1.02E+00,1.11E+01,,,,
635,6.88E-01,9.52E+00,,,,
636,-1.02E+00,1.11E+01,,,,
637,4.88E-01,9.92E+00,,,,
638,-1.02E+00,1.11E+01,,,,
639,4.80E-01,9.88E+00,,,,
640,-1.02E+00,1.11E+01,,,,
641,4.48E-01,1.00E+01,,,,
642,3.20E-01,1.11E+01,,,,
643,-1.02E+00,1.02E+01,,,,
644,-1.02E+00,1.11E+01,,,,
645,2.56E-01,1.01E+01,,,,
646,-1.02E+00,1.11E+01,,,,
647,-1.28E-01,1.01E+01,,,,
648,-1.02E+00,1.11E+01,,,,
649,2.08E-01,1.02E+01,,,,
650,3.12E-01,1.11E+01,,,,
651,-1.02E+00,1.04E+01,,,,
652,-1.02E+00,1.11E+01,,,,
653,2.32E-01,1.03E+01,,,,
654,-1.02E+00,1.11E+01,,,,
655,2.40E-01,1.05E+01,,,,
656,-1.02E+00,1.11E+01,,,,
657,-5.60E-02,1.04E+01,,,,
658,-4.72E-01,1.11E+01,,,,
659,-1.02E+00,1.07E+01,,,,
660,-1.02E+00,1.11E+01,,,,
661,-8.00E-01,1.11E+01,,,,
662,-1.02E+00,1.11E+01,,,,
663,-8.16E-01,1.11E+01,,,,
664,-1.02E+00,1.11E+01,,,,
665,-7.76E-01,1.11E+01,,,,
666,-1.02E+00,1.11E+01,,,,
667,-7.84E-01,1.11E+01,,,,
668,-1.02E+00,1.11E+01,,,,
669,-7.92E-01,1.11E+01,,,,
670,-1.02E+00,1.11E+01,,,,
671,-8.08E-01,1.11E+01,,,,
672,-1.02E+00,1.11E+01,,,,
673,-7.76E-01,1.11E+01,,,,
674,-1.02E+00,1.11E+01,,,,
675,-8.08E-01,1.11E+01,,,,
676,-1.02E+00,1.11E+01,,,,
677,-8.08E-01,1.11E+01,,,,
678,-1.02E+00,1.11E+01,,,,
679,-7.84E-01,1.11E+01,,,,
680,-7.92E-01,1.11E+01,,,,
681,-1.02E+00,1.11E+01,,,,
682,-1.02E+00,1.11E+01,,,,
683,-7.92E-01,1.11E+01,,,,
684,-1.02E+00,1.11E+01,,,,
685,-7.84E-01,1.11E+01,,,,
686,-1.02E+00,1.11E+01,,,,
687,-7.68E-01,1.11E+01,,,,
688,-1.02E+00,1.11E+01,,,,
689,-7.60E-01,1.11E+01,,,,
690,-1.02E+00,1.11E+01,,,,
691,-7.76E-01,1.11E+01,,,,
692,-1.02E+00,1.11E+01,,,,
693,-7.92E-01,1.11E+01,,,,
694,-1.02E+00,1.11E+01,,,,
695,5.92E-01,1.03E+01,,,,
696,-1.02E+00,1.11E+01,,,,
697,2.56E-01,1.02E+01,,,,
698,3.28E-01,1.11E+01,,,,
699,-1.02E+00,1.04E+01,,,,
700,3.04E-01,1.11E+01,,,,
701,-1.02E+00,1.06E+01,,,,
702,-1.02E+00,1.11E+01,,,,
703,1.02E+00,5.88E+00,,,,
704,-1.02E+00,1.11E+01,,,,
705,-9.12E-01,1.11E+01,,,,
706,-1.02E+00,1.11E+01,,,,
707,-9.20E-01,1.11E+01,,,,
708,-1.02E+00,1.11E+01,,,,
709,-8.88E-01,1.11E+01,,,,
710,-1.02E+00,1.11E+01,,,,
711,-8.72E-01,1.11E+01,,,,
712,-1.02E+00,1.11E+01,,,,
713,-8.64E-01,1.11E+01,,,,
714,-8.64E-01,1.11E+01,,,,
715,-1.01E+00,1.11E+01,,,,
716,-8.72E-01,1.11E+01,,,,
717,-1.02E+00,1.11E+01,,,,
718,-1.02E+00,1.11E+01,,,,
719,-8.48E-01,1.11E+01,,,,
720,-8.48E-01,1.11E+01,,,,
721,-1.02E+00,1.11E+01,,,,
722,-8.64E-01,1.11E+01,,,,
723,-1.02E+00,1.11E+01,,,,
724,-1.02E+00,1.11E+01,,,,
725,-8.40E-01,1.11E+01,,,,
726,-8.72E-01,1.11E+01,,,,
727,-1.00E+00,1.11E+01,,,,
728,-1.02E+00,1.11E+01,,,,
729,-8.40E-01,1.11E+01,,,,
730,-1.00E+00,1.11E+01,,,,
731,-8.48E-01,1.11E+01,,,,
732,-1.02E+00,1.11E+01,,,,
733,-8.48E-01,1.11E+01,,,,
734,-1.02E+00,1.11E+01,,,,
735,-8.72E-01,1.11E+01,,,,
736,-8.56E-01,1.11E+01,,,,
737,-1.02E+00,1.11E+01,,,,
738,-8.56E-01,1.11E+01,,,,
739,-1.00E+00,1.11E+01,,,,
740,-8.72E-01,1.11E+01,,,,
741,-1.02E+00,1.11E+01,,,,
742,-8.64E-01,1.11E+01,,,,
743,-1.02E+00,1.11E+01,,,,
744,-1.02E+00,1.11E+01,,,,
745,-8.56E-01,1.11E+01,,,,
746,-1.02E+00,1.11E+01,,,,
747,-8.72E-01,1.11E+01,,,,
748,-1.00E+00,1.11E+01,,,,
749,-8.40E-01,1.11E+01,,,,
750,-8.40E-01,1.11E+01,,,,
751,-1.02E+00,1.11E+01,,,,
